Week 2: Intro to Data Wrangling with dplyr
…
coffee_ratings %>% 
  ____(1:4, number_of_bags) %>% 
  ____(country_of_origin == "Brazil") %>%
  ____(total_cup_points > 70) %>% 
  ____(desc(number_of_bags))

Here is the solution:

coffee_ratings %>% 
  select(1:4, number_of_bags) %>% 
  filter(country_of_origin == "Brazil") %>%
  filter(total_cup_points > 70) %>% 
  arrange(desc(number_of_bags))

## # A tibble: 132 x 5
##    total_cup_points species owner                country_of_orig number_of_bags
##               <dbl> <chr>   <chr>                <chr>                     <dbl>
##  1             82.2 Arabica klem organics        Brazil                     1062
##  2             81.1 Arabica gregorio sebba       Brazil                      500
##  3             80.2 Arabica volcafe ltda. - bra Brazil                      440
##  4             80.1 Arabica brayan cunha souza   Brazil                      440
##  5             75.7 Arabica volcafe ltda. - bra Brazil                      440
##  6             84.5 Arabica alexandra katona-ca Brazil                      320
##  7             84   Arabica ipanema coffees      Brazil                      320
##  8             83.9 Arabica ipanema coffees      Brazil                      320
##  9             83.9 Arabica ipanema coffees      Brazil                      320
## 10             83.8 Arabica ipanema coffees      Brazil                      320
## #  with 122 more rows
…
Lets look at the average and median total_cup_points grouped by country_of_origin this time:

coffee_ratings %>%
  group_by(country_of_origin) %>%
  summarise(avg_rating = mean(total_cup_points),
            median_rating = median(total_cup_points))

## # A tibble: 37 x 3
##    country_of_origin avg_rating median_rating
##    <chr>                  <dbl>         <dbl>
##  1 Brazil                  82.4          82.4
##  2 Burundi                 81.8          81.8
##  3 China                   82.9          83.2
##  4 Colombia                83.1          83.2
##  5 Costa Rica              82.8          83.2
##  6 Cote d?Ivoire           79.3          79.3
##  7 Ecuador                 80.2          78.8
##  8 El Salvador             83.1          82.8
##  9 Ethiopia                85.5          85.2
## 10 Guatemala               81.8          82.5
## #  with 27 more rows
…
Here is the solution:

The order is: 3 - 2 - 1 - 7 - 6 - 5 - 4 The alternative orders: 3 - 1 - 2 - 7 - 6 - 5 - 4 & 3 - 7 - 1 - 2 - 6 - 5 - 4

coffee_ratings %>% 
  select(total_cup_points, species, country_of_origin, processing_method, aroma, aftertaste, color) %>%
  filter(species == "Arabica") %>% 
  mutate(is_color_full = ifelse(!is.na(color), 1, 0)) %>% 
  group_by(country_of_origin, is_color_full) %>% 
  summarise(mean_aroma = mean(aroma),
            mean_aftertaste = mean(aftertaste)) %>%
  arrange(desc(mean_aroma))

## # A tibble: 59 x 4
## # Groups:   country_of_origin [37]
##    country_of_origin is_color_full mean_aroma mean_aftertaste
##    <chr>                     <dbl>      <dbl>           <dbl>
##  1 Papua New Guinea              1       8.33            7.83
##  2 Uganda                        0       8.08            7.83
##  3 Ethiopia                      1       8.01            7.92
##  4 Panama                        0       8               7.83
##  5 United States                 1       8               8.08
##  6 Uganda                        1       7.90            7.59
##  7 United States                 0       7.87            7.98
##  8 Rwanda                        1       7.83            7.75
##  9 Ethiopia                      0       7.82            7.88
## 10 Kenya                         1       7.81            7.74
## #  with 49 more rows
…
