…
========================================================
## *Select:* Choosing is not losing!

We are moving to our first dplyr verb. `select` helps us select the variables we want to use or we need for our analysis. 


```r
 select(coffee_ratings, species, country_of_origin, color, certification_body) 
```

```
# A tibble: 1,339 x 4
   species country_of_origin color        certification_body                
   <chr>   <chr>             <chr>        <chr>                             
 1 Arabica Ethiopia          Green        METAD Agricultural Development plc
 2 Arabica Ethiopia          Green        METAD Agricultural Development plc
 3 Arabica Guatemala         <NA>         Specialty Coffee Association      
 4 Arabica Ethiopia          Green        METAD Agricultural Development plc
 5 Arabica Ethiopia          Green        METAD Agricultural Development plc
 6 Arabica Brazil            Bluish-Green Specialty Coffee Institute of Asia
 7 Arabica Peru              Bluish-Green Specialty Coffee Institute of Asia
 8 Arabica Ethiopia          <NA>         Ethiopia Commodity Exchange       
 9 Arabica Ethiopia          <NA>         Ethiopia Commodity Exchange       
10 Arabica Ethiopia          Green        METAD Agricultural Development plc
# … with 1,329 more rows
```



========================================================
`select` has helpers like the one on the below. You can select range of columns by using `:`


```r
  select(coffee_ratings, 1:4, 21:34) 
```

```
# A tibble: 1,339 x 18
   total_cup_points species owner country_of_orig… aroma flavor aftertaste
              <dbl> <chr>   <chr> <chr>            <dbl>  <dbl>      <dbl>
 1             90.6 Arabica meta… Ethiopia          8.67   8.83       8.67
 2             89.9 Arabica meta… Ethiopia          8.75   8.67       8.5 
 3             89.8 Arabica grou… Guatemala         8.42   8.5        8.42
 4             89   Arabica yidn… Ethiopia          8.17   8.58       8.42
 5             88.8 Arabica meta… Ethiopia          8.25   8.5        8.25
 6             88.8 Arabica ji-a… Brazil            8.58   8.42       8.42
 7             88.8 Arabica hugo… Peru              8.42   8.5        8.33
 8             88.7 Arabica ethi… Ethiopia          8.25   8.33       8.5 
 9             88.4 Arabica ethi… Ethiopia          8.67   8.67       8.58
10             88.2 Arabica diam… Ethiopia          8.08   8.58       8.5 
# … with 1,329 more rows, and 11 more variables: acidity <dbl>, body <dbl>,
#   balance <dbl>, uniformity <dbl>, clean_cup <dbl>, sweetness <dbl>,
#   cupper_points <dbl>, moisture <dbl>, category_one_defects <dbl>,
#   quakers <dbl>, color <chr>
```


========================================================
## *Filter:* Do we want everything?
`filter` helps us to extract rows that meet logical criteria. 
Let's say we want to look at our coffee_ratings dataset only for Ethiopia originated coffees. Then what we need to do is `filter` our dataset by using necessary column and value:


```r
filter(coffee_ratings, country_of_origin == "Ethiopia")
```

```
# A tibble: 44 x 43
   total_cup_points species owner country_of_orig… farm_name lot_number mill 
              <dbl> <chr>   <chr> <chr>            <chr>     <chr>      <chr>
 1             90.6 Arabica meta… Ethiopia         metad plc <NA>       meta…
 2             89.9 Arabica meta… Ethiopia         metad plc <NA>       meta…
 3             89   Arabica yidn… Ethiopia         yidnekac… <NA>       wole…
 4             88.8 Arabica meta… Ethiopia         metad plc <NA>       meta…
 5             88.7 Arabica ethi… Ethiopia         aolme     <NA>       c.p.…
 6             88.4 Arabica ethi… Ethiopia         aolme     <NA>       c.p.…
 7             88.2 Arabica diam… Ethiopia         tulla co… <NA>       tull…
 8             88.1 Arabica moha… Ethiopia         fahem co… <NA>       <NA> 
 9             87.8 Arabica ethi… Ethiopia         aolme     <NA>       c.p.…
10             87.3 Arabica ethi… Ethiopia         <NA>      <NA>       <NA> 
# … with 34 more rows, and 36 more variables: ico_number <chr>, company <chr>,
#   altitude <chr>, region <chr>, producer <chr>, number_of_bags <dbl>,
#   bag_weight <chr>, in_country_partner <chr>, harvest_year <chr>,
#   grading_date <chr>, owner_1 <chr>, variety <chr>, processing_method <chr>,
#   aroma <dbl>, flavor <dbl>, aftertaste <dbl>, acidity <dbl>, body <dbl>,
#   balance <dbl>, uniformity <dbl>, clean_cup <dbl>, sweetness <dbl>,
#   cupper_points <dbl>, moisture <dbl>, category_one_defects <dbl>,
#   quakers <dbl>, color <chr>, category_two_defects <dbl>, expiration <chr>,
#   certification_body <chr>, certification_address <chr>,
#   certification_contact <chr>, unit_of_measurement <chr>,
#   altitude_low_meters <dbl>, altitude_high_meters <dbl>,
#   altitude_mean_meters <dbl>
```


```r
filter(coffee_ratings, number_of_bags >= 60)
```

```
# A tibble: 789 x 43
   total_cup_points species owner country_of_orig… farm_name lot_number mill 
              <dbl> <chr>   <chr> <chr>            <chr>     <chr>      <chr>
 1             90.6 Arabica meta… Ethiopia         metad plc <NA>       meta…
 2             89.9 Arabica meta… Ethiopia         metad plc <NA>       meta…
 3             89   Arabica yidn… Ethiopia         yidnekac… <NA>       wole…
 4             88.8 Arabica meta… Ethiopia         metad plc <NA>       meta…
 5             88.8 Arabica ji-a… Brazil           <NA>      <NA>       <NA> 
 6             88.8 Arabica hugo… Peru             <NA>      <NA>       hvc  
 7             88.7 Arabica ethi… Ethiopia         aolme     <NA>       c.p.…
 8             88.4 Arabica ethi… Ethiopia         aolme     <NA>       c.p.…
 9             88.1 Arabica moha… Ethiopia         fahem co… <NA>       <NA> 
10             87.8 Arabica ethi… Ethiopia         aolme     <NA>       c.p.…
# … with 779 more rows, and 36 more variables: ico_number <chr>, company <chr>,
#   altitude <chr>, region <chr>, producer <chr>, number_of_bags <dbl>,
#   bag_weight <chr>, in_country_partner <chr>, harvest_year <chr>,
#   grading_date <chr>, owner_1 <chr>, variety <chr>, processing_method <chr>,
#   aroma <dbl>, flavor <dbl>, aftertaste <dbl>, acidity <dbl>, body <dbl>,
#   balance <dbl>, uniformity <dbl>, clean_cup <dbl>, sweetness <dbl>,
#   cupper_points <dbl>, moisture <dbl>, category_one_defects <dbl>,
#   quakers <dbl>, color <chr>, category_two_defects <dbl>, expiration <chr>,
#   certification_body <chr>, certification_address <chr>,
…
========================================================
## *Arrange:*  Let's bring some order to data!

`arrange` order rows from smallest to largest values. 
Let's say we want to look at our data frame arranged by `total_cup_points`. In default, your dataset will be arranged bu ascending order.


```r
  arrange(coffee_ratings, total_cup_points)
```

```
# A tibble: 1,339 x 43
   total_cup_points species owner country_of_orig… farm_name lot_number mill 
              <dbl> <chr>   <chr> <chr>            <chr>     <chr>      <chr>
 1              0   Arabica bism… Honduras         los hica… 103        cigr…
 2             59.8 Arabica juan… Guatemala        finca el… <NA>       bene…
 3             63.1 Arabica expo… Nicaragua        finca la… 017-053-0… bene…
 4             67.9 Arabica myri… Haiti            200 farms <NA>       coeb…
 5             68.3 Arabica juan… Mexico           el cente… <NA>       la e…
 6             69.2 Arabica cade… Honduras         cerro bu… <NA>       cade…
 7             69.2 Arabica cade… Honduras         cerro bu… <NA>       cade…
 8             69.3 Arabica cade… Honduras         cerro bu… <NA>       cade…
 9             70.7 Arabica volc… Brazil           <NA>      2017/2018… copag
10             70.8 Arabica kurt… Mexico           various   <NA>       f.i.…
# … with 1,329 more rows, and 36 more variables: ico_number <chr>,
#   company <chr>, altitude <chr>, region <chr>, producer <chr>,
#   number_of_bags <dbl>, bag_weight <chr>, in_country_partner <chr>,
#   harvest_year <chr>, grading_date <chr>, owner_1 <chr>, variety <chr>,
#   processing_method <chr>, aroma <dbl>, flavor <dbl>, aftertaste <dbl>,
#   acidity <dbl>, body <dbl>, balance <dbl>, uniformity <dbl>,
#   clean_cup <dbl>, sweetness <dbl>, cupper_points <dbl>, moisture <dbl>,
#   category_one_defects <dbl>, quakers <dbl>, color <chr>,
#   category_two_defects <dbl>, expiration <chr>, certification_body <chr>,
#   certification_address <chr>, certification_contact <chr>,
#   unit_of_measurement <chr>, altitude_low_meters <dbl>,
#   altitude_high_meters <dbl>, altitude_mean_meters <dbl>
```

========================================================
## *Arrange:*  Let's bring some order to data!
If we want to order it by descending order of total_cup_points, we can use this syntax:

```r
  arrange(coffee_ratings, desc(total_cup_points))
```

```
# A tibble: 1,339 x 43
   total_cup_points species owner country_of_orig… farm_name lot_number mill 
              <dbl> <chr>   <chr> <chr>            <chr>     <chr>      <chr>
 1             90.6 Arabica meta… Ethiopia         "metad p… <NA>       meta…
 2             89.9 Arabica meta… Ethiopia         "metad p… <NA>       meta…
 3             89.8 Arabica grou… Guatemala        "san mar… <NA>       <NA> 
 4             89   Arabica yidn… Ethiopia         "yidneka… <NA>       wole…
 5             88.8 Arabica meta… Ethiopia         "metad p… <NA>       meta…
 6             88.8 Arabica ji-a… Brazil            <NA>     <NA>       <NA> 
 7             88.8 Arabica hugo… Peru              <NA>     <NA>       hvc  
 8             88.7 Arabica ethi… Ethiopia         "aolme"   <NA>       c.p.…
 9             88.4 Arabica ethi… Ethiopia         "aolme"   <NA>       c.p.…
10             88.2 Arabica diam… Ethiopia         "tulla c… <NA>       tull…
# … with 1,329 more rows, and 36 more variables: ico_number <chr>,
#   company <chr>, altitude <chr>, region <chr>, producer <chr>,
#   number_of_bags <dbl>, bag_weight <chr>, in_country_partner <chr>,
#   harvest_year <chr>, grading_date <chr>, owner_1 <chr>, variety <chr>,
#   processing_method <chr>, aroma <dbl>, flavor <dbl>, aftertaste <dbl>,
#   acidity <dbl>, body <dbl>, balance <dbl>, uniformity <dbl>,
#   clean_cup <dbl>, sweetness <dbl>, cupper_points <dbl>, moisture <dbl>,
#   category_one_defects <dbl>, quakers <dbl>, color <chr>,
#   category_two_defects <dbl>, expiration <chr>, certification_body <chr>,
…
Here is the solution:
========================================================


```r
coffee_ratings %>% 
  select(1:4, number_of_bags) %>% 
  filter(country_of_origin == "Brazil") %>%
  filter(total_cup_points > 70) %>% 
  arrange(desc(number_of_bags))
```

```
# A tibble: 132 x 5
   total_cup_points species owner                country_of_orig… number_of_bags
              <dbl> <chr>   <chr>                <chr>                     <dbl>
 1             82.2 Arabica klem organics        Brazil                     1062
 2             81.1 Arabica gregorio sebba       Brazil                      500
 3             80.2 Arabica volcafe ltda. - bra… Brazil                      440
 4             80.1 Arabica brayan cunha souza   Brazil                      440
 5             75.7 Arabica volcafe ltda. - bra… Brazil                      440
 6             84.5 Arabica alexandra katona-ca… Brazil                      320
 7             84   Arabica ipanema coffees      Brazil                      320
 8             83.9 Arabica ipanema coffees      Brazil                      320
 9             83.9 Arabica ipanema coffees      Brazil                      320
10             83.8 Arabica ipanema coffees      Brazil                      320
# … with 122 more rows
```
…
========================================================
## *Group_by & Summarise:* Let's create associations among groups!


```r
coffee_ratings %>%
  group_by(country_of_origin) %>%
  summarise(avg_rating = mean(total_cup_points),
            median_rating = median(total_cup_points)
            )
```

```
# A tibble: 37 x 3
   country_of_origin avg_rating median_rating
   <chr>                  <dbl>         <dbl>
 1 Brazil                  82.4          82.4
 2 Burundi                 81.8          81.8
 3 China                   82.9          83.2
 4 Colombia                83.1          83.2
 5 Costa Rica              82.8          83.2
 6 Cote d?Ivoire           79.3          79.3
 7 Ecuador                 80.2          78.8
 8 El Salvador             83.1          82.8
 9 Ethiopia                85.5          85.2
10 Guatemala               81.8          82.5
# … with 27 more rows
```
…
```r
coffee_ratings %>% 
  select(total_cup_points, species, country_of_origin, processing_method, aroma, flavor, aftertaste) %>%
  filter(species == "Arabica") %>% 
  filter(!is.na(country_of_origin)) %>% 
  group_by(country_of_origin) %>% 
  summarise(mean_aroma = mean(aroma),
            mean_flavor = mean(flavor),
            mean_aftertaste = mean(aftertaste)) %>%
  arrange(mean_aroma) 
```

```
# A tibble: 36 x 4
   country_of_origin mean_aroma mean_flavor mean_aftertaste
   <chr>                  <dbl>       <dbl>           <dbl>
 1 Haiti                   7.15        7.00            7.11
 2 Mauritius               7.25        7.25            7.17
 3 Honduras                7.29        7.23            7.06
 4 Myanmar                 7.30        7.33            7.12
 5 Nicaragua               7.33        7.32            7.20
 6 Philippines             7.36        7.23            7.30
 7 Burundi                 7.42        7.46            7.25
 8 Cote d?Ivoire           7.42        7.25            6.83
 9 Mexico                  7.46        7.38            7.23
10 Vietnam                 7.48        7.48            7.30
# … with 26 more rows
```
…
